#Rotational partition function for H2 (odd) following A.Popovas Thesis (2014)
# first column Tgas (K), second partition function
10 3.5690510073978296e-7
20 0.0017922460508139073
30 0.030691109678038904
40 0.1270047814412753
50 0.29778622603268806
60 0.5255673025585182
70 0.7886133733227585
80 1.069197233132077
90 1.3549342547405827
100 1.6379188173594141
110 1.9135193009326101
120 2.179353800575804
130 2.4345244110406496
140 2.6790721732133185
150 2.9135987829539975
160 3.1390093960881704
170 3.3563419513606556
180 3.5666576198099507
190 3.7709738916477633
200 3.9702269017173863
210 4.165253349997817
220 4.35678514828739
230 4.5454519689407435
240 4.73178836808652
250 4.916243239941994
260 5.099190134206306
270 5.280937514537931
280 5.4617384136747456
290 5.641799196090393
300 5.8212873069842805
310 6.000337992726237
320 6.179060041595144
330 6.357540628507979
340 6.535849363252032
350 6.714041645415389
360 6.892161425540775
370 7.070243464242303
380 7.248315171269064
390 7.426398096143791
400 7.604509131888684
410 7.782661483950954
420 7.960865447996529
430 8.139129032834795
440 8.317458458360802
450 8.495858552987848
460 8.674333070500502
470 8.852884942480564
480 9.031516479342743
490 9.210229530463259
500 9.389025611804229
510 9.567906007749526
520 9.7468718525066
530 9.92592419533315
540 10.10506405297031
550 10.284292451962397
560 10.463610462984867
570 10.643019228857423
580 10.822519987567226
590 11.002114091347657
600 11.181803022637983
610 11.361588407574317
620 11.541472027525453
630 11.721455829078087
640 11.9015419327907
650 12.081732640967738
660 12.262030444652238
670 12.442438029992974
680 12.622958284108073
690 12.8035943005414
700 12.984349384385194
710 13.165227057126653
720 13.346231061261237
730 13.527365364704986
740 13.708634165028576
750 13.89004189352851
760 14.071593219144974
770 14.253293052230058
780 14.435146548167387
790 14.617159110839241
800 14.799336395935786
810 14.9816843140984
820 15.164209033887259
830 15.34691698456279
840 15.529814858668885
850 15.71290961440597
860 15.896208477781276
870 16.07971894452413
880 16.263448781753823
890 16.447406029388638
900 16.63159900128472
910 16.81603628609453
920 17.000726747835813
930 17.185679526162062
940 17.370904036327886
950 17.556409968842743
960 17.74220728880839
970 17.928306234936233
980 18.11471731824255
990 18.30145132042014
1000 18.488519291886846
1010 18.675932549512446
1020 18.863702674026392
1030 19.051841507110336
1040 19.240361148180597
1050 19.429273950866293
1060 19.618592519190546
1070 19.808329703462615
1080 19.99849859588987
1090 20.18911252591936
1100 20.380185055319593
1110 20.57172997301332
1120 20.763761289673454
1130 20.956293232093945
1140 21.149340237348643
1150 21.34291694675105
1160 21.537038199628185
1170 21.73171902692248
1180 21.926974644635145
1190 22.122820447124905
1200 22.3192720002763
1210 22.516345034550945
1220 22.71405543793611
1230 22.912419248803864
1240 23.111452648694684
1250 23.311171955038645
1260 23.511593613827472
1270 23.712734192250117
1280 23.914610371304637
1290 24.117238938398078
1300 24.320636779946973
1310 24.524820873988958
1320 24.72980828281726
1330 24.93561614564842
1340 25.14226167133322
1350 25.349762131120837
1360 25.5581348514856
1370 25.767397207024477
1380 25.977566613434675
1390 26.18866052057815
1400 26.40069640564143
1410 26.61369176639686
1420 26.82766411457241
1430 27.042630969335587
1440 27.258609850897397
1450 27.47561827424122
1460 27.693673742981492
1470 27.912793743356335
1480 28.132995738358023
1490 28.354297162004812
1500 28.576715413757107
1510 28.80026785308066
1520 29.02497179415915
1530 29.250844500757974
1540 29.477903181241214
1550 29.706164983742372
1560 29.93564699149079
1570 30.16636621829339
1580 30.39833960417317
1590 30.63158401116344
1600 30.86611621925875
1610 31.101952922521313
1620 31.339110725342508
1630 31.577606138858943
1640 31.81745557752141
1650 32.05867535581612
1660 32.30128168513613
1670 32.54529067080215
1680 32.79071830922997
1690 33.037580485243694
1700 33.28589296953173
1710 33.53567141624415
1720 33.78693136072871
1730 34.039688217403175
1740 34.29395727776167
1750 34.549753708512476
1760 34.80709254984426
1770 35.06598871381851
1780 35.3264569828853
1790 35.58851200851944
1800 35.85216830997402
1810 36.117440273148986
1820 36.38434214957146
1830 36.652888055484595
1840 36.9230919710428
1850 37.19496773960954
1860 37.46852906715536
1870 37.74378952175264
1880 38.02076253316471
1890 38.29946139252589
1900 38.5798992521095
1910 38.86208912518147
1920 39.14604388593596
1930 39.4317762695106
1940 39.71929887207819
1950 40.008624151012405
1960 40.29976442512423
1970 40.592731874966844
1980 40.887538543206
1990 41.18419633505321
2000 41.48271701875941
2010 41.78311222616595
2020 42.08539345331111
2030 42.38957206108893
2040 42.695659275958405
2050 43.0036661907006
2060 43.31360376522118
2070 43.625482827395885
2080 43.93931407395729
2090 44.25510807142027
2100 44.572875257043876
2110 44.89262593982796
2120 45.2143703015424
2130 45.53811839778642
2140 45.86388015907712
2150 46.19166539196419
2160 46.52148378017005
2170 46.85334488575257
2180 47.18725815028982
2190 47.52323289608412
2200 47.86127832738444
2210 48.201403531625395
2220 48.54361748068117
2230 48.88792903213324
2240 49.23434693055015
2250 49.5828798087781
2260 49.93353618924103
2270 50.28632448524895
2280 50.64125300231333
2290 50.99832993946809
2300 51.35756339059538
2310 51.7189613457548
2320 52.082531692515396
2330 52.4482822172888
2340 52.816220606663045
2350 53.18635444873588
2360 53.558691234446925
2370 53.93323835890743
2380 54.31000312272724
2390 54.688992733337805
2400 55.07021430631062
2410 55.45367486667071
2420 55.8393813502039
2430 56.22734060475753
2440 56.6175593915342
2450 57.01004438637743
2460 57.40480218104916
2470 57.80183928449847
2480 58.201162124120636
2490 58.60277704700673
2500 59.00669032118273
2510 59.4129081368379
2520 59.82143660754222
2530 60.2322817714523
2540 60.64544959250556
2550 61.06094596160226
2560 61.47877669777499
2570 61.89894754934568
2580 62.32146419506969
2590 62.74633224526628
2600 63.17355724293638
2610 63.60314466486607
2620 64.03509992271671
2630 64.4694283641011
2640 64.90613527364522
2650 65.34522587403617
2660 65.78670532705547
2670 66.23057873459805
2680 66.67685113967669
2690 67.12552752741178
2700 67.57661282600681
2710 68.03011190770833
2720 68.48602958975216
2730 68.94437063529404
2740 69.4051397543259
2750 69.86834160457741
2760 70.33398079240231
2770 70.80206187365056
2780 71.27258935452558
2790 71.74556769242616
2800 72.22100129677506
2810 72.6988945298315
2820 73.17925170749035
2830 73.66207710006624
2840 74.14737493306308
2850 74.63514938793007
2860 75.12540460280279
2870 75.61814467323008
2880 76.11337365288756
2890 76.6110955542768
2900 77.11131434941039
2910 77.61403397048389
2920 78.11925831053372
2930 78.62699122408195
2940 79.13723652776734
2950 79.64999800096349
2960 80.16527938638392
2970 80.68308439067349
2980 81.20341668498845
2990 81.72627990556224
3000 82.25167765425972
3010 82.77961349911882
3020 83.31009097487963
3030 83.84311358350195
3040 84.37868479467033
3050 84.91680804628784
3060 85.45748674495773
3070 86.00072426645396
3080 86.5465239561802
3090 87.0948891296176
3100 87.64582307276214
3110 88.19932904254993
3120 88.75541026727326
3130 89.3140699469848
3140 89.87531125389243
3150 90.43913733274287
3160 91.00555130119649
3170 91.57455625019088
3180 92.14615524429557
3190 92.72035132205684
3200 93.29714749633312
3210 93.87654675462096
3220 94.4585520593724
3230 95.04316634830245
3240 95.63039253468882
3250 96.22023350766226
3260 96.81269213248841
3270 97.40777125084186
3280 98.00547368107141
3290 98.6058022184576
3300 99.2087596354621
3310 99.81434868196965
3320 100.42257208552213
3330 101.03343255154535
3340 101.6469327635683
3350 102.26307538343539
3360 102.88186305151183
3370 103.5032983868817
3380 104.12738398753939
3390 104.75412243057497
3400 105.38351627235208
3410 106.01556804868048
3420 106.65028027498153
3430 107.28765544644835
3440 107.9276960381996
3450 108.57040450542732
3460 109.21578328353965
3470 109.8638347882972
3480 110.51456141594494
3490 111.1679655433375
3500 111.82404952806094
3510 112.48281570854765
3520 113.14426640418783
3530 113.80840391543491
3540 114.47523052390743
3550 115.14474849248501
3560 115.81696006540103
3570 116.49186746833023
3580 117.16947290847187
3590 117.84977857462971
3600 118.5327866372865
3610 119.21849924867584
3620 119.90691854284921
3630 120.59804663573996
3640 121.29188562522309
3650 121.98843759117176
3660 122.6877045955102
3670 123.38968868226347
3680 124.09439187760374
3690 124.80181618989336
3700 125.51196360972492
3710 126.22483610995843
3720 126.94043564575534
3730 127.65876415460993
3740 128.37982355637772
3750 129.1036157533015
3760 129.83014263003454
3770 130.55940605366158
3780 131.29140787371688
3790 132.02614992220066
3800 132.76363401359234
3810 133.50386194486288
3820 134.2468354954833
3830 134.99255642743293
3840 135.7410264852041
3850 136.4922473958063
3860 137.2462208687672
3870 138.0029485961332
3880 138.76243225246697
3890 139.52467349484445
3900 140.28967396284952
3910 141.05743527856757
3920 141.82795904657746
3930 142.6012468539419
3940 143.3773002701966
3950 144.15612084733894
3960 144.9377101198137
3970 145.72206960449887
3980 146.50920080069054
3990 147.29910519008553
4000 148.09178423676414
4010 148.88723938717132
4020 149.68547207009706
4030 150.486483696656
4040 151.29027566026627
4050 152.09684933662712
4060 152.9062060836962
4070 153.7183472416664
4080 154.5332741329413
4090 155.3509880621108
4100 156.17149031592533
4110 156.99478216327057
4120 157.82086485514088
4130 158.64973962461258
4140 159.48140768681668
4150 160.3158702389115
4160 161.15312846005477
4170 161.99318351137552
4180 162.83603653594545
4190 163.68168865875052
4200 164.53014098666176
4210 165.3813946084069
4220 166.23545059454034
4230 167.09230999741436
4240 167.95197385114977
4250 168.81444317160646
4260 169.67971895635395
4270 170.5478021846418
4280 171.41869381737067
4290 172.2923947970626
4300 173.16890604783185
4310 174.0482284753557
4320 174.9303629668461
4330 175.8153103910196
4340 176.70307159806973
4350 177.59364741963822
4360 178.4870386687866
4370 179.38324613996826
4380 180.28227060900088
4390 181.18411283303854
4400 182.0887735505452
4410 182.99625348126727
4420 183.90655332620744
4430 184.81967376759832
4440 185.73561546887683
4450 186.65437907465866
4460 187.57596521071332
4470 188.5003744839396
4480 189.42760748234136
4490 190.3576647750037
4500 191.2905469120703
4510 192.22625442471963
4520 193.1647878251439
4530 194.1061476065258
4540 195.0503342430189
4550 195.9973481897254
4560 196.9471898826768
4570 197.89985973881406
4580 198.855358155968
4590 199.8136855128416
4600 200.7748421689911
4610 201.7388284648091
4620 202.7056447215079
4630 203.6752912411026
4640 204.6477683063962
4650 205.62307618096418
4660 206.60121510914038
4670 207.58218531600298
4680 208.56598700736149
4690 209.55262036974446
4700 210.54208557038726
4710 211.53438275722138
4720 212.5295120588636
4730 213.52747358460607
4740 214.5282674244074
4750 215.53189364888397
4760 216.53835230930207
4770 217.54764343757085
4780 218.55976704623586
4790 219.574723128473
4800 220.59251165808408
4810 221.61313258949127
4820 222.63658585773456
4830 223.66287137846822
4840 224.69198904795832
4850 225.72393874308176
4860 226.7587203213247
4870 227.79633362078235
4880 228.83677846016022
4890 229.88005463877462
4900 230.92616193655502
4910 231.97510011404628
4920 233.02686891241214
4930 234.0814680534399
4940 235.13889723954378
4950 236.1991561537718
4960 237.26224445981165
4970 238.3281618019966
4980 239.39690780531438
4990 240.4684820754147
5000 241.54288419861882
5010 242.62011374192886
5020 243.70017025303792
5030 244.78305326034203
5040 245.8687622729516
5050 246.95729678070353
5060 248.04865625417554
5070 249.14284014469868
5080 250.23984788437312
5090 251.3396788860825
5100 252.44233254351096
5110 253.54780823115897
5120 254.65610530436123
5130 255.7672230993039
5140 256.88116093304495
5150 257.9979181035317
5160 259.11749388962204
5170 260.23988755110514
5180 261.3650983287223
5190 262.4931254441893
5200 263.62396810021966
5210 264.7576254805468
5220 265.89409674995
5230 267.03338105427656
5240 268.17547752046966
5250 269.32038525659283
5260 270.468103351857
5270 271.61863087664784
5280 272.7719668825531
5290 273.92811040239235
5300 275.08706045024456
5310 276.2488160214793
5320 277.41337609278605
5330 278.5807396222059
5340 279.7509055491621
5350 280.92387279449434
5360 282.0996402604888
5370 283.27820683091335
5380 284.4595713710512
5390 285.6437327277355
5400 286.8306897293833
5410 288.0204411860335
5420 289.21298588938083
5430 290.4083226128138
5440 291.6064501114521
5450 292.8073671221847
5460 294.0110723637073
5470 295.2175645365626
5480 296.42684232317896
5490 297.63890438791105
5500 298.8537493770806
5510 300.0713759190168
5520 301.29178262409863
5530 302.5149680847967
5540 303.7409308757167
5550 304.9696695536414
5560 306.2011826575749
5570 307.4354687087874
5580 308.67252621085925
5590 309.9123536497258
5600 311.15494949372385
5610 312.4003121936374
5620 313.64844018274414
5630 314.89933187686245
5640 316.1529856743994
5650 317.40939995639843
5660 318.6685730865867
5670 319.93050341142583
5680 321.19518926016013
5690 322.46262894486614
5700 323.7328207605033
5710 325.00576298496395
5720 326.281453879125
5730 327.55989168689854
5740 328.84107463528443
5750 330.12500093442134
5760 331.4116687776409
5770 332.7010763415192
5780 333.99322178593104
5790 335.2881032541032
5800 336.5857188726688
5810 337.8860667517218
5820 339.18914498487135
5830 340.49495164929755
5840 341.803484805807
5850 343.11474249888806
5860 344.4287227567676
5870 345.74542359146784
5880 347.0648429988623
5890 348.3869789587337
5900 349.7118294348319
5910 351.0393923749309
5920 352.36966571088715
5930 353.7026473586985
5940 355.03833521856285
5950 356.37672717493706
5960 357.7178210965959
5970 359.0616148366935
5980 360.4081062328201
5990 361.75729310706566
6000 363.1091732660781
6010 364.4637445011249
6020 365.82100458815415
6030 367.1809512878556
6040 368.5435823457217
6050 369.90889549211084
6060 371.2768884423076
6070 372.64755889658636
6080 374.02090454027297
6090 375.3969230438075
6100 376.7756120628081
6110 378.1569692381323
6120 379.5409921959428
6130 380.9276785477691
6140 382.31702589057187
6150 383.7090318068068
6160 385.1036938644898
6170 386.50100961725934
6180 387.90097660444314
6190 389.3035923511216
6200 390.70885436819316
6210 392.11676015243876
6220 393.5273071865881
6230 394.94049293938434
6240 396.35631486565006
6250 397.7747704063527
6260 399.1958569886703
6270 400.6195720260579
6280 402.04591291831383
6290 403.4748770516456
6300 404.9064617987362
6310 406.34066451881125
6320 407.77748255770547
6330 409.21691324792914
6340 410.6589539087359
6350 412.10360184618844
6360 413.5508543532271
6370 415.00070870973616
6380 416.4531621826114
6390 417.908212025828
6400 419.36585548050783
6410 420.82608977498643
6420 422.2889121248824
6430 423.754319733163
6440 425.2223097902141
6450 426.69287947390694
6460 428.1660259496663
6470 429.64174637053924
6480 431.1200378772623
6490 432.6008975983306
6500 434.084322650066
6510 435.5703101366844
6520 437.058857150366
6530 438.5499607713214
6540 440.0436180678627
6550 441.5398260964697
6560 443.0385819018599
6570 444.5398825170561
6580 446.04372496345655
6590 447.5501062509006
6600 449.0590233777415
6610 450.5704733309112
6620 452.08445308599164
6630 453.6009596072819
6640 455.1199898478677
6650 456.64154074969076
6660 458.16560924361494
6670 459.69219224949836
6680 461.2212866762596
6690 462.75288942194715
6700 464.2869973738092
6710 465.82360740836003
6720 467.36271639145104
6730 468.9043211783377
6740 470.44841861374925
6750 471.99500553195634
6760 473.5440787568408
6770 475.09563510196307
6780 476.6496713706318
6790 478.2061843559708
6800 479.765170840989
6810 481.3266275986481
6820 482.890551391931
6830 484.4569389739101
6840 486.0257870878157
6850 487.5970924671043
6860 489.1708518355263
6870 490.7470619071945
6880 492.32571938665234
6890 493.90682096894074
6900 495.49036333966774
6910 497.0763431750744
6920 498.6647571421049
6930 500.25560189847164
6940 501.8488740927257
6950 503.4445703643208
6960 505.0426873436848
6970 506.64322165228367
6980 508.2461699026914
6990 509.8515286986556
7000 511.4592946351648
7010 513.0694642985166
7020 514.6820342663832
7030 516.2970011078794
7040 517.9143613836283
7050 519.5341116458295
7060 521.1562484383232
7070 522.7807682966602
7080 524.4076677481647
7090 526.0369433120032
7100 527.6685914992488
7110 529.3026088129479
7120 530.938991748187
7130 532.5777367921579
7140 534.2188404242218
7150 535.8622991159781
7160 537.5081093313273
7170 539.156267526537
7180 540.8067701503078
7190 542.4596136438373
7200 544.1147944408866
7210 545.7723089678428
7220 547.4321536437866
7230 549.0943248805546
7240 550.7588190828044
7250 552.4256326480797
7260 554.0947619668732
7270 555.7662034226922
7280 557.4399533921209
7290 559.1160082448845
7300 560.7943643439146
7310 562.4750180454101
7320 564.1579656989021
7330 565.8432036473167
7340 567.5307282270383
7350 569.2205357679718
7360 570.9126225936066
7370 572.6069850210778
7380 574.3036193612295
7390 576.0025219186762
7400 577.7036889918664
7410 579.4071168731441
7420 581.1128018488092
7430 582.8207401991809
7440 584.5309281986584
7450 586.2433621157826
7460 587.958038213297
7470 589.6749527482084
7480 591.394101971849
7490 593.115482129935
7500 594.83908946263
7510 596.5649202046025
7520 598.2929705850873
7530 600.0232368279466
7540 601.7557151517273
7550 603.4904017697231
7560 605.2272928900334
7570 606.9663847156208
7580 608.7076734443734
7590 610.4511552691612
7600 612.1968263778955
7610 613.9446829535889
7620 615.6947211744117
7630 617.4469372137519
7640 619.2013272402719
7650 620.9578874179678
7660 622.7166139062257
7670 624.4775028598799
7680 626.240550429271
7690 628.0057527603021
7700 629.7731059944961
7710 631.5426062690518
7720 633.3142497169025
7730 635.0880324667701
7740 636.8639506432232
7750 638.6420003667324
7760 640.4221777537249
7770 642.2044789166433
7780 643.9888999639983
7790 645.7754370004251
7800 647.5640861267383
7810 649.3548434399878
7820 651.1477050335118
7830 652.9426669969926
7840 654.7397254165102
7850 656.5388763745982
7860 658.3401159502947
7870 660.1434402192001
7880 661.9488452535254
7890 663.7563271221517
7900 665.5658818906786
7910 667.3775056214789
7920 669.1911943737531
7930 671.0069442035781
7940 672.8247511639635
7950 674.6446113049017
7960 676.4665206734205
7970 678.2904753136341
7980 680.1164712667975
7990 681.9445045713535
8000 683.7745712629882
8010 685.6066673746789
8020 687.4407889367475
8030 689.2769319769085
8040 691.1150925203218
8050 692.955266589641
8060 694.797450205066
8070 696.6416393843896
8080 698.4878301430493
8090 700.3360184941769
8100 702.1862004486452
8110 704.0383720151215
8120 705.8925292001113
8130 707.7486680080109
8140 709.6067844411542
8150 711.4668744998605
8160 713.3289341824844
8170 715.1929594854608
8180 717.0589464033555
8190 718.9268909289104
8200 720.796789053092
8210 722.6686367651376
8220 724.5424300526035
8230 726.4181649014093
8240 728.2958372958868
8250 730.1754432188247
8260 732.0569786515148
8270 733.9404395737986
8280 735.825821964112
8290 737.7131217995308
8300 739.6023350558172
8310 741.4934577074625
8320 743.3864857277342
8330 745.28141508872
8340 747.1782417613701
8350 749.0769617155447
8360 750.9775709200565
8370 752.880065342713
8380 754.7844409503631
8390 756.6906937089389
8400 758.5988195834974
8410 760.5088145382675
8420 762.4206745366881
8430 764.3343955414545
8440 766.2499735145582
8450 768.1674044173318
8460 770.0866842104876
8470 772.0078088541621
8480 773.9307743079569
8490 775.8555765309792
8500 777.7822114818838
8510 779.7106751189157
8520 781.6409633999464
8530 783.5730722825192
8540 785.506997723888
8550 787.4427356810558
8560 789.380282110817
8570 791.3196329697969
8580 793.2607842144894
8590 795.2037318012996
8600 797.1484716865799
8610 799.0949998266706
8620 801.043312177939
8630 802.9934046968172
8640 804.9452733398413
8650 806.8989140636883
8660 808.8543228252156
8670 810.8114955814995
8680 812.7704282898698
8690 814.7311169079496
8700 816.693557393693
8710 818.6577457054215
8720 820.6236778018582
8730 822.5913496421707
8740 824.5607571860005
8750 826.5318963935049
8760 828.50476322539
8770 830.4793536429479
8780 832.4556636080912
8790 834.4336890833912
8800 836.413426032109
8810 838.3948704182346
8820 840.3780182065202
8830 842.3628653625152
8840 844.3494078526003
8850 846.3376416440237
8860 848.327562704931
8870 850.3191670044054
8880 852.3124505124962
8890 854.3074092002552
8900 856.3040390397698
8910 858.3023360041958
8920 860.3022960677905
8930 862.3039152059462
8940 864.307189395221
8950 866.3121146133757
8960 868.3186868393994
8970 870.3269020535497
8980 872.3367562373775
8990 874.3482453737631
9000 876.3613654469465
9010 878.3761124425575
9020 880.3924823476503
9030 882.410471150732
9040 884.4300748417927
9050 886.4512894123393
9060 888.4741108554234
9070 890.4985351656727
9080 892.524558339321
9090 894.5521763742388
9100 896.581385269961
9110 898.6121810277201
9120 900.6445596504713
9130 902.6785171429271
9140 904.7140495115801
9150 906.7511527647371
9160 908.7898229125452
9170 910.8300559670218
9180 912.8718479420827
9190 914.9151948535686
9200 916.960092719275
9210 919.0065375589808
9220 921.0545253944724
9230 923.1040522495766
9240 925.155114150183
9250 927.207707124273
9260 929.261827201949
9270 931.3174704154569
9280 933.3746327992168
9290 935.4333103898473
9300 937.4934992261926
9310 939.5551953493489
9320 941.6183948026882
9330 943.683093631889
9340 945.7492878849561
9350 947.8169736122501
9360 949.8861468665121
9370 951.9568037028878
9380 954.0289401789529
9390 956.1025523547385
9400 958.1776362927559
9410 960.2541880580194
9420 962.3322037180726
9430 964.4116793430126
9440 966.492611005512
9450 968.5749947808453
9460 970.6588267469109
9470 972.7441029842558
9480 974.830819576098
9490 976.9189726083492
9500 979.0085581696402
9510 981.0995723513432
9520 983.1920112475915
9530 985.2858709553059
9540 987.3811475742166
9550 989.4778372068816
9560 991.5759359587161
9570 993.6754399380055
9580 995.7763452559371
9590 997.878648026612
9600 999.9823443670747
9610 1002.0874303973283
9620 1004.1939022403615
9630 1006.3017560221638
9640 1008.410987871752
9650 1010.5215939211857
9660 1012.633570305593
9670 1014.7469131631862
9680 1016.8616186352867
9690 1018.9776828663408
9700 1021.0951020039432
9710 1023.2138721988546
9720 1025.333989605024
9730 1027.455450379605
9740 1029.5782506829773
9750 1031.7023866787656
9760 1033.8278545338592
9770 1035.954650418431
9780 1038.0827705059542
9790 1040.2122109732243
9800 1042.342968000377
9810 1044.4750377709033
9820 1046.6084164716722
9830 1048.743100292947
9840 1050.8790854284025
9850 1053.0163680751443
9860 1055.1549444337259
9870 1057.2948107081656
9880 1059.4359631059665
9890 1061.5783978381305
9900 1063.7221111191777
9910 1065.8670991671638
9920 1068.0133582036938
9930 1070.1608844539435
9940 1072.309674146672
9950 1074.459723514241
9960 1076.6110287926301
9970 1078.7635862214527
9980 1080.9173920439728
9990 1083.072442507121
10000 1085.2287338615095
10010 1087.3862623614484
10020 1089.5450242649626
10030 1091.7050158338045
10040 1093.8662333334723
10050 1096.0286730332223
10060 1098.1923312060871
10070 1100.3572041288871
10080 1102.5232880822489
10090 1104.6905793506176
10100 1106.8590742222714
10110 1109.0287689893387
10120 1111.1996599478077
10130 1113.3717433975455
10140 1115.5450156423096
10150 1117.7194729897624
10160 1119.8951117514837
10170 1122.0719282429875
10180 1124.2499187837332
10190 1126.429079697139
10200 1128.6094073105965
10210 1130.7908979554836
10220 1132.9735479671763
10230 1135.1573536850642
10240 1137.342311452561
10250 1139.5284176171178
10260 1141.7156685302377
10270 1143.9040605474856
10280 1146.0935900285026
10290 1148.2842533370153
10300 1150.4760468408538
10310 1152.6689669119569
10320 1154.8630099263892
10330 1157.0581722643499
10340 1159.2544503101856
10350 1161.4518404524044
10360 1163.6503390836817
10370 1165.849942600876
10380 1168.0506474050392
10390 1170.2524499014287
10400 1172.4553464995156
10410 1174.6593336129977
10420 1176.8644076598102
10430 1179.0705650621378
10440 1181.2778022464215
10450 1183.4861156433726
10460 1185.6955016879813
10470 1187.905956819529
10480 1190.1174774815945
10490 1192.3300601220699
10500 1194.5437011931645
10510 1196.7583971514198
10520 1198.9741444577153
10530 1201.190939577281
10540 1203.408778979706
10550 1205.6276591389465
10560 1207.8475765333378
10570 1210.0685276456022
10580 1212.290508962857
10590 1214.5135169766268
10600 1216.7375481828492
10610 1218.9625990818838
10620 1221.1886661785247
10630 1223.415745982004
10640 1225.643835006005
10650 1227.8729297686684
10660 1230.1030267925985
10670 1232.3341226048756
10680 1234.5662137370632
10690 1236.7992967252142
10700 1239.0333681098791
10710 1241.268424436117
10720 1243.5044622534995
10730 1245.7414781161192
10740 1247.979468582602
10750 1250.218430216106
10760 1252.4583595843374
10770 1254.6992532595516
10780 1256.9411078185653
10790 1259.1839198427588
10800 1261.427685918088
10810 1263.672402635088
10820 1265.9180665888805
10830 1268.1646743791819
10840 1270.4122226103075
10850 1272.6607078911823
10860 1274.910126835343
10870 1277.1604760609473
10880 1279.4117521907792
10890 1281.6639518522554
10900 1283.917071677431
10910 1286.1711083030073
10920 1288.4260583703362
10930 1290.6819185254249
10940 1292.9386854189474
10950 1295.1963557062413
10960 1297.4549260473218
10970 1299.7143931068824
10980 1301.9747535543029
10990 1304.2360040636538
11000 1306.4981413137
11010 1308.7611619879103
11020 1311.025062774458
11030 1313.289840366229
11040 1315.5554914608258
11050 1317.8220127605714
11060 1320.0894009725168
11070 1322.3576528084445
11080 1324.6267649848712
11090 1326.8967342230549
11100 1329.167557248999
11110 1331.4392307934563
11120 1333.711751591934
11130 1335.9851163846974
11140 1338.259321916773
11150 1340.5343649379565
11160 1342.8102422028144
11170 1345.0869504706836
11180 1347.3644865056865
11190 1349.6428470767225
11200 1351.9220289574803
11210 1354.2020289264387
11220 1356.4828437668693
11230 1358.7644702668424
11240 1361.0469052192282
11250 1363.3301454217021
11260 1365.6141876767451
11270 1367.8990287916536
11280 1370.184665578534
11290 1372.4710948543127
11300 1374.7583134407348
11310 1377.0463181643713
11320 1379.3351058566172
11330 1381.6246733536989
11340 1383.9150174966735
11350 1386.2061351314348
11360 1388.4980231087118
11370 1390.7906782840762
11380 1393.0840975179408
11390 1395.378277675566
11400 1397.6732156270568
11410 1399.9689082473706
11420 1402.265352416316
11430 1404.562545018556
11440 1406.8604829436129
11450 1409.159163085865
11460 1411.458582344551
11470 1413.7587376237764
11480 1416.059625832508
11490 1418.3612438845798
11500 1420.6635886986933
11510 1422.9666571984246
11520 1425.270446312216
11530 1427.5749529733878
11540 1429.8801741201312
11550 1432.186106695517
11560 1434.4927476474918
11570 1436.8000939288838
11580 1439.108142497397
11590 1441.4168903156253
11600 1443.726334351036
11610 1446.0364715759888
11620 1448.3472989677227
11630 1450.658813508366
11640 1452.9710121849341
11650 1455.2838919893281
11660 1457.5974499183412
11670 1459.9116829736538
11680 1462.226588161838
11690 1464.542162494358
11700 1466.858402987567
11710 1469.1753066627125
11720 1471.492870545935
11730 1473.8110916682676
11740 1476.1299670656363
11750 1478.4494937788643
11760 1480.7696688536655
11770 1483.0904893406507
11780 1485.411952295325
11790 1487.734054778089
11800 1490.0567938542379
11810 1492.3801665939616
11820 1494.704170072347
11830 1497.0288013693744
11840 1499.3540575699187
11850 1501.679935763751
11860 1504.006433045538
11870 1506.3335465148382
11880 1508.6612732761062
11890 1510.98961043869
11900 1513.3185551168306
11910 1515.6481044296618
11920 1517.9782555012112
11930 1520.3090054603956
11940 1522.640351441027
11950 1524.972290581805
11960 1527.3048200263206
11970 1529.6379369230538
11980 1531.9716384253725
11990 1534.3059216915344
12000 1536.6407838846808
12010 1538.9762221728429
12020 1541.3122337289337
12030 1543.648815730752
12040 1545.9859653609792
12050 1548.323679807178
12060 1550.6619562617914
12070 1553.0007919221453
12080 1555.3401839904416
12090 1557.6801296737574
12100 1560.0206261840501
12110 1562.3616707381486
12120 1564.703260557755
12130 1567.045392869445
12140 1569.3880649046635
12150 1571.7312738997236
12160 1574.0750170958074
12170 1576.4192917389614
12180 1578.7640950800942
12190 1581.1094243749822
12200 1583.4552768842575
12210 1585.801649873413
12220 1588.148540612799
12230 1590.4959463776213
12240 1592.8438644479386
12250 1595.1922921086605
12260 1597.5412266495478
12270 1599.8906653652098
12280 1602.2406055550987
12290 1604.5910445235115
12300 1606.9419795795889
12310 1609.2934080373082
12320 1611.6453272154852
12330 1613.9977344377708
12340 1616.3506270326498
12350 1618.7040023334357
12360 1621.0578576782718
12370 1623.4121904101278
12380 1625.766997876795
12390 1628.1222774308883
12400 1630.4780264298406
12410 1632.8342422358992
12420 1635.190922216131
12430 1637.5480637424062
12440 1639.9056641914117
12450 1642.2637209446343
12460 1644.6222313883677
12470 1646.9811929137063
12480 1649.3406029165426
12490 1651.7004587975625
12500 1654.0607579622474
12510 1656.4214978208674
12520 1658.7826757884807
12530 1661.1442892849266
12540 1663.50633573483
12550 1665.8688125675912
12560 1668.2317172173869
12570 1670.595047123167
12580 1672.9587997286496
12590 1675.3229724823216
12600 1677.6875628374305
12610 1680.0525682519851
12620 1682.4179861887524
12630 1684.7838141152529
12640 1687.1500495037571
12650 1689.5166898312837
12660 1691.8837325795964
12670 1694.251175235199
12680 1696.6190152893357
12690 1698.987250237981
12700 1701.3558775818433
12710 1703.7248948263582
12720 1706.0942994816871
12730 1708.4640890627102
12740 1710.834261089026
12750 1713.2048130849482
12760 1715.5757425794998
12770 1717.94704710641
12780 1720.318724204115
12790 1722.690771415745
12800 1725.063186289133
12810 1727.4359663767991
12820 1729.8091092359568
12830 1732.1826124285008
12840 1734.5564735210114
12850 1736.9306900847444
12860 1739.3052596956286
12870 1741.6801799342663
12880 1744.0554483859235
12890 1746.4310626405304
12900 1748.8070202926751
12910 1751.1833189416022
12920 1753.5599561912056
12930 1755.9369296500265
12940 1758.3142369312507
12950 1760.691875652702
12960 1763.0698434368408
12970 1765.448137910756
12980 1767.8267567061673
12990 1770.2056974594157
13000 1772.58495781146
13010 1774.964535407876
13020 1777.3444278988509
13030 1779.7246329391764
13040 1782.1051481882482
13050 1784.485971310061
13060 1786.8670999732024
13070 1789.2485318508507
13080 1791.6302646207696
13090 1794.0122959653052
13100 1796.3946235713809
13110 1798.7772451304902
13120 1801.160158338699
13130 1803.5433608966373
13140 1805.9268505094917
13150 1808.3106248870085
13160 1810.6946817434814
13170 1813.0790187977539
13180 1815.4636337732102
13190 1817.8485243977748
13200 1820.2336884039019
13210 1822.6191235285773
13220 1825.0048275133117
13230 1827.3907981041339
13240 1829.7770330515896
13250 1832.1635301107347
13260 1834.5502870411322
13270 1836.9373016068462
13280 1839.324571576438
13290 1841.7120947229632
13300 1844.0998688239633
13310 1846.4878916614625
13320 1848.8761610219663
13330 1851.2646746964517
13340 1853.6534304803674
13350 1856.0424261736243
13360 1858.4316595805947
13370 1860.8211285101054
13380 1863.210830775434
13390 1865.6007641943029
13400 1867.9909265888764
13410 1870.3813157857542
13420 1872.7719296159669
13430 1875.1627659149713
13440 1877.5538225226485
13450 1879.9450972832924
13460 1882.3365880456101
13470 1884.7282926627183
13480 1887.1202089921303
13490 1889.512334895762
13500 1891.9046682399187
13510 1894.297206895293
13520 1896.689948736962
13530 1899.0828916443768
13540 1901.4760335013639
13550 1903.8693721961154
13560 1906.2629056211872
13570 1908.6566316734925
13580 1911.0505482542947
13590 1913.444653269207
13600 1915.8389446281851
13610 1918.23342024552
13620 1920.6280780398372
13630 1923.0229159340872
13640 1925.4179318555434
13650 1927.8131237357975
13660 1930.2084895107512
13670 1932.6040271206132
13680 1934.9997345098932
13690 1937.3956096273998
13700 1939.7916504262312
13710 1942.1878548637717
13720 1944.584220901686
13730 1946.9807465059157
13740 1949.377429646672
13750 1951.7742682984333
13760 1954.1712604399356
13770 1956.5684040541707
13780 1958.9656971283812
13790 1961.3631376540527
13800 1963.7607236269107
13810 1966.158453046914
13820 1968.556323918252
13830 1970.9543342493341
13840 1973.3524820527912
13850 1975.750765345464
13860 1978.1491821484035
13870 1980.5477304868589
13880 1982.9464083902812
13890 1985.3452138923108
13900 1987.744145030771
13910 1990.1431998476717
13920 1992.542376389193
13930 1994.9416727056885
13940 1997.341086851675
13950 1999.7406168858308
13960 2002.140260870984
13970 2004.5400168741146
13980 2006.939882966344
13990 2009.3398572229341
14000 2011.7399377232746
14010 2014.1401225508869
14020 2016.5404097934097
14030 2018.9407975426016
14040 2021.3412838943273
14050 2023.741866948561
14060 2026.1425448093746
14070 2028.5433155849332
14080 2030.9441773874937
14090 2033.3451283333925
14100 2035.7461665430474
14110 2038.1472901409452
14120 2040.5484972556426
14130 2042.9497860197548
14140 2045.3511545699548
14150 2047.7526010469649
14160 2050.1541235955538
14170 2052.5557203645258
14180 2054.9573895067238
14190 2057.359129179015
14200 2059.7609375422917
14210 2062.162812761462
14220 2064.564753005446
14230 2066.966756447169
14240 2069.3688212635584
14250 2071.7709456355356
14260 2074.173127748012
14270 2076.5753657898813
14280 2078.9776579540166
14290 2081.3800024372645
14300 2083.782397440436
14310 2086.1848411683063
14320 2088.5873318296044
14330 2090.989867637012
14340 2093.3924468071536
14350 2095.7950675605916
14360 2098.1977281218255
14370 2100.600426719279
14380 2103.0031615853018
14390 2105.405930956156
14400 2107.8087330720186
14410 2110.21156617697
14420 2112.614428518989
14430 2115.0173183499537
14440 2117.420233925624
14450 2119.8231735056474
14460 2122.2261353535478
14470 2124.6291177367184
14480 2127.0321189264223
14490 2129.43513719778
14500 2131.838170829767
14510 2134.2412181052086
14520 2136.644277310773
14530 2139.0473467369666
14540 2141.450424678126
14550 2143.8535094324184
14560 2146.256599301828
14570 2148.659692592154
14580 2151.062787613009
14590 2153.4658826778036
14600 2155.868976103751
14610 2158.272066211855
14620 2160.6751513269064
14630 2163.078229777477
14640 2165.4812998959146
14650 2167.8843600183354
14660 2170.2874084846217
14670 2172.6904436384107
14680 2175.093463827097
14690 2177.496467401819
14700 2179.8994527174564
14710 2182.3024181326255
14720 2184.7053620096726
14730 2187.108282714668
14740 2189.5111786174007
14750 2191.9140480913716
14760 2194.3168895137906
14770 2196.719701265569
14780 2199.1224817313105
14790 2201.525229299314
14800 2203.9279423615594
14810 2206.330619313707
14820 2208.733258555089
14830 2211.1358584887057
14840 2213.53841752122
14850 2215.9409340629477
14860 2218.3434065278593
14870 2220.745833333565
14880 2223.1482129013193
14890 2225.550543656006
14900 2227.9528240261375
14910 2230.3550524438483
14920 2232.757227344889
14930 2235.159347168622
14940 2237.5614103580115
14950 2239.9634153596226
14960 2242.3653606236153
14970 2244.7672446037336
14980 2247.169065757307
14990 2249.5708225452404
15000 2251.9725134320092
15010 2254.3741368856527
15020 2256.775691377771
15030 2259.1771753835183
15040 2261.578587381594
15050 2263.979925854243
15060 2266.3811892872445
15070 2268.782376169911
15080 2271.1834849950765
15090 2273.5845142590983
15100 2275.985462461846
15110 2278.3863281066974
15120 2280.787109700533
15130 2283.18780575373
15140 2285.5884147801567
15150 2287.988935297169
15160 2290.389365825599
15170 2292.7897048897544
15180 2295.189951017414
15190 2297.5901027398163
15200 2299.9901585916587
15210 2302.3901171110906
15220 2304.7899768397037
15230 2307.189736322535
15240 2309.5893941080535
15250 2311.9889487481573
15260 2314.388398798168
15270 2316.7877428168254
15280 2319.186979366281
15290 2321.5861070120914
15300 2323.985124323217
15310 2326.3840298720106
15320 2328.782822234215
15330 2331.1814999889593
15340 2333.5800617187465
15350 2335.9785060094546
15360 2338.3768314503313
15370 2340.775036633981
15380 2343.1731201563653
15390 2345.5710806167986
15400 2347.968916617935
15410 2350.366626765773
15420 2352.7642096696404
15430 2355.161663942194
15440 2357.5589881994147
15450 2359.9561810605933
15460 2362.3532411483416
15470 2364.7501670885677
15480 2367.146957510484
15490 2369.5436110465976
15500 2371.9401263327004
15510 2374.336502007871
15520 2376.7327367144635
15530 2379.1288290981065
15540 2381.524777807688
15550 2383.9205814953666
15560 2386.316238816548
15570 2388.711748429891
15580 2391.1071089972984
15590 2393.5023191839105
15600 2395.8973776581006
15610 2398.292283091471
15620 2400.6870341588437
15630 2403.081629538257
15640 2405.476067910963
15650 2407.870347961416
15660 2410.2644683772687
15670 2412.6584278493733
15680 2415.0522250717663
15690 2417.4458587416693
15700 2419.8393275594794
15710 2422.232630228769
15720 2424.6257654562733
15730 2427.0187319518927
15740 2429.411528428681
15750 2431.8041536028404
15760 2434.196606193722
15770 2436.588884923813
15780 2438.9809885187337
15790 2441.3729157072366
15800 2443.7646652211915
15810 2446.1562357955895
15820 2448.5476261685308
15830 2450.938835081227
15840 2453.329861277983
15850 2455.7207035062047
15860 2458.111360516386
15870 2460.501831062105
15880 2462.89211390002
15890 2465.2822077898622
15900 2467.6721114944316
15910 2470.061823779591
15920 2472.451343414259
15930 2474.8406691704085
15940 2477.229799823057
15950 2479.6187341502646
15960 2482.007470933127
15970 2484.3960089557677
15980 2486.78434700534
15990 2489.172483872012
16000 2491.560418348968
16010 2493.948149232401
16020 2496.335675321508
16030 2498.722995418484
16040 2501.1101083285153
16050 2503.497012859776
16060 2505.8837078234233
16070 2508.2701920335903
16080 2510.65646430738
16090 2513.0425234648633
16100 2515.428368329072
16110 2517.813997725991
16120 2520.199410484557
16130 2522.584605436649
16140 2524.969581417089
16150 2527.354337263629
16160 2529.7388718169536
16170 2532.123183920667
16180 2534.507272421295
16190 2536.8911361682717
16200 2539.2747740139425
16210 2541.6581848135547
16220 2544.0413674252504
16230 2546.4243207100653
16240 2548.807043531921
16250 2551.18953475762
16260 2553.571793256841
16270 2555.9538179021324
16280 2558.335607568908
16290 2560.7171611354456
16300 2563.0984774828707
16310 2565.479555495167
16320 2567.8603940591547
16330 2570.2409920644973
16340 2572.6213484036934
16350 2575.0014619720682
16360 2577.381331667771
16370 2579.7609563917676
16380 2582.1403350478427
16390 2584.5194665425843
16400 2586.8983497853833
16410 2589.2769836884313
16420 2591.6553671667107
16430 2594.033499137989
16440 2596.4113785228215
16450 2598.7890042445333
16460 2601.166375229227
16470 2603.5434904057706
16480 2605.9203487057944
16490 2608.296949063683
16500 2610.6732904165747
16510 2613.04937170435
16520 2615.4251918696373
16530 2617.8007498577954
16540 2620.1760446169164
16550 2622.5510750978183
16560 2624.925840254039
16570 2627.3003390418316
16580 2629.6745704201635
16590 2632.0485333507027
16600 2634.42222679782
16610 2636.7956497285813
16620 2639.168801112743
16630 2641.541679922748
16640 2643.914285133717
16650 2646.286615723448
16660 2648.6586706724083
16670 2651.030448963729
16680 2653.401949583206
16690 2655.773171519285
16700 2658.144113763064
16710 2660.514775308287
16720 2662.8851551513367
16730 2665.255252291232
16740 2667.625065729621
16750 2669.994594470777
16760 2672.363837521597
16770 2674.7327938915882
16780 2677.101462592869
16790 2679.4698426401665
16800 2681.8379330508055
16810 2684.2057328447054
16820 2686.5732410443807
16830 2688.9404566749236
16840 2691.3073787640164
16850 2693.674006341911
16860 2696.0403384414294
16870 2698.4063740979636
16880 2700.7721123494657
16890 2703.1375522364424
16900 2705.5026928019506
16910 2707.867533091597
16920 2710.2320721535298
16930 2712.596309038427
16940 2714.960242799508
16950 2717.3238724925136
16960 2719.6871971757078
16970 2722.050215909871
16980 2724.412927758298
16990 2726.775331786788
17000 2729.1374270636466
17010 2731.4992126596767
17020 2733.860687648171
17030 2736.2218511049136
17040 2738.582702108171
17050 2740.943239738691
17060 2743.3034630796906
17070 2745.66337121686
17080 2748.0229632383493
17090 2750.382238234777
17100 2752.741195299204
17110 2755.099833527151
17120 2757.458152016583
17130 2759.816149867901
17140 2762.173826183944
17150 2764.5311800699847
17160 2766.8882106337196
17170 2769.244916985268
17180 2771.601298237164
17190 2773.9573535043573
17200 2776.3130819042035
17210 2778.6684825564616
17220 2781.0235545832857
17230 2783.378297109229
17240 2785.7327092612322
17250 2788.0867901686156
17260 2790.4405389630833
17270 2792.7939547787128
17280 2795.1470367519546
17290 2797.4997840216206
17300 2799.852195728887
17310 2802.204271017283
17320 2804.5560090326944
17330 2806.907408923349
17340 2809.2584698398205
17350 2811.609190935019
17360 2813.95957136419
17370 2816.309610284905
17380 2818.6593068570587
17390 2821.008660242871
17400 2823.3576696068712
17410 2825.7063341159014
17420 2828.0546529391113
17430 2830.402625247946
17440 2832.750250216157
17450 2835.097527019776
17460 2837.4444548371343
17470 2839.791032848839
17480 2842.1372602377783
17490 2844.483136189114
17500 2846.8286598902764
17510 2849.173830530966
17520 2851.5186473031363
17530 2853.8631094010034
17540 2856.2072160210346
17550 2858.5509663619396
17560 2860.8943596246763
17570 2863.2373950124374
17580 2865.580071730653
17590 2867.9223889869763
17600 2870.2643459912956
17610 2872.605941955708
17620 2874.947176094537
17630 2877.2880476243113
17640 2879.6285557637702
17650 2881.968699733856
17660 2884.308478757705
17670 2886.6478920606537
17680 2888.986938870225
17690 2891.325618416128
17700 2893.663929930254
17710 2896.0018726466656
17720 2898.339445801607
17730 2900.676648633481
17740 2903.01348038286
17750 2905.349940292473
17760 2907.686027607204
17770 2910.021741574089
17780 2912.3570814423088
17790 2914.6920464631894
17800 2917.0266358901863
17810 2919.3608489788962
17820 2921.6946849870455
17830 2924.028143174479
17840 2926.3612228031643
17850 2928.693923137188
17860 2931.026243442747
17870 2933.3581829881477
17880 2935.6897410437928
17890 2938.0209168821916
17900 2940.3517097779463
17910 2942.6821190077494
17920 2945.012143850379
17930 2947.341783586697
17940 2949.6710374996424
17950 2951.9999048742293
17960 2954.3283849975387
17970 2956.6564771587205
17980 2958.9841806489826
17990 2961.31149476159
18000 2963.6384187918666
18010 2965.964952037176
18020 2968.291093796931
18030 2970.6168433725875
18040 2972.9422000676313
18050 2975.267163187585
18060 2977.5917320399976
18070 2979.9159059344424
18080 2982.239684182512
18090 2984.5630660978145
18100 2986.886050995968
18110 2989.208638194602
18120 2991.5308270133446
18130 2993.8526167738264
18140 2996.1740067996743
18150 2998.4949964164994
18160 3000.8155849519076
18170 3003.1357717354826
18180 3005.4555560987897
18190 3007.774937375365
18200 3010.093914900724
18210 3012.412488012338
18220 3014.730656049648
18230 3017.0484183540507
18240 3019.3657742688997
18250 3021.6827231394986
18260 3023.999264313093
18270 3026.3153971388797
18280 3028.6311209679875
18290 3030.9464351534803
18300 3033.2613390503543
18310 3035.5758320155333
18320 3037.889913407861
18330 3040.203582588104
18340 3042.5168389189375
18350 3044.829681764953
18360 3047.1421104926476
18370 3049.454124470418
18380 3051.7657230685645
18390 3054.0769056592812
18400 3056.3876716166506
18410 3058.698020316646
18420 3061.007951137122
18430 3063.317463457814
18440 3065.6265566603306
18450 3067.935230128156
18460 3070.2434832466383
18470 3072.5513154029927
18480 3074.858725986292
18490 3077.165714387466
18500 3079.472279999297
18510 3081.7784222164178
18520 3084.0841404353005
18530 3086.3894340542656
18540 3088.694302473465
18550 3090.9987450948856
18560 3093.3027613223408
18570 3095.6063505614757
18580 3097.9095122197514
18590 3100.2122457064515
18600 3102.51455043267
18610 3104.816425811316
18620 3107.1178712570977
18630 3109.418886186532
18640 3111.719470017939
18650 3114.0196221714205
18660 3116.3193420688845
18670 3118.6186291340173
18680 3120.917482792295
18690 3123.2159024709695
18700 3125.5138875990733
18710 3127.811437607409
18720 3130.1085519285516
18730 3132.405229996838
18740 3134.7014712483688
18750 3136.997275121003
18760 3139.292641054353
18770 3141.5875684897846
18780 3143.8820568704064
18790 3146.176105641074
18800 3148.4697142483833
18810 3150.762882140662
18820 3153.055608767974
18830 3155.347893582111
18840 3157.6397360365904
18850 3159.9311355866494
18860 3162.222091689246
18870 3164.5126038030508
18880 3166.8026713884433
18890 3169.0922939075153
18900 3171.381470824057
18910 3173.670201603561
18920 3175.958485713216
18930 3178.246322621902
18940 3180.5337118001903
18950 3182.820652720338
18960 3185.1071448562825
18970 3187.39318768364
18980 3189.6787806797006
18990 3191.9639233234316
19000 3194.2486150954587
19010 3196.532855478082
19020 3198.816643955253
19030 3201.09998001259
19040 3203.3828631373567
19050 3205.665292818472
19060 3207.9472685464993
19070 3210.228789813646
19080 3212.50985611376
19090 3214.7904669423265
19100 3217.07062179646
19110 3219.3503201749077
19120 3221.6295615780405
19130 3223.908345507853
19140 3226.1866714679604
19150 3228.4645389635907
19160 3230.7419475015836
19170 3233.0188965903903
19180 3235.295385740066
19190 3237.5714144622675
19200 3239.84698227025
19210 3242.1220886788633
19220 3244.3967332045518
19230 3246.670915365344
19240 3248.944634680855
19250 3251.2178906722834
19260 3253.490682862401
19270 3255.76301077556
19280 3258.03487393768
19290 3260.30627187625
19300 3262.5772041203227
19310 3264.847670200515
19320 3267.117669648999
19330 3269.3872019995006
19340 3271.6562667872995
19350 3273.9248635492218
19360 3276.1929918236387
19370 3278.4606511504658
19380 3280.7278410711488
19390 3282.994561128676
19400 3285.2608108675654
19410 3287.526589833858
19420 3289.7918975751277
19430 3292.056733640463
19440 3294.321097580475
19450 3296.584988947288
19460 3298.8484072945403
19470 3301.111352177374
19480 3303.3738231524417
19490 3305.6358197778945
19500 3307.897341613385
19510 3310.15838822006
19520 3312.418959160557
19530 3314.679053999008
19540 3316.938672301024
19550 3319.197813633702
19560 3321.456477565622
19570 3323.714663666836
19580 3325.972371508865
19590 3328.229600664713
19600 3330.4863507088376
19610 3332.7426212171677
19620 3334.998411767089
19630 3337.253721937446
19640 3339.508551308539
19650 3341.762899462115
19660 3344.016765981371
19670 3346.2701504509537
19680 3348.523052456941
19690 3350.775471586859
19700 3353.0274074296635
19710 3355.278859575743
19720 3357.5298276169187
19730 3359.780311146434
19740 3362.0303097589594
19750 3364.2798230505796
19760 3366.528850618798
19770 3368.7773920625364
19780 3371.025446982122
19790 3373.2730149792883
19800 3375.5200956571794
19810 3377.766688620338
19820 3380.0127934747015
19830 3382.258409827607
19840 3384.5035372877855
19850 3386.748175465349
19860 3388.9923239718064
19870 3391.2359824200403
19880 3393.479150424319
19890 3395.72182760029
19900 3397.964013564968
19910 3400.2057079367414
19920 3402.4469103353717
19930 3404.6876203819797
19940 3406.927837699052
19950 3409.1675619104317
19960 3411.4067926413186
19970 3413.6455295182673
19980 3415.8837721691834
19990 3418.1215202233157
20000 3420.3587733112627
