{
    "substitutions" : [
	["T32"       , "Tgas/300"],
	["invTgas"   , "1e0/Tgas"],
    ["invT"   , "1e0/Tgas"],
	["invT32"    , "1.e0/T32"],
    ["invTe"    , "1.e0/Te"],
	["lnT"       , "log(Tgas)"],
    ["lnTe"       , "log(Te)"],
	["sqrTgas"   , "sqrt(Tgas)"],
	["ntot"      , "ntot"],
	["Hnuclei"   , "Hnuclei"]
    ],
    "deferred_substitutions" : {
        "kh11" : "k_{\\mathrm{H11}}",
    	"a11"  : "a_{11}",
    	"Te"   : "T_{\\mathrm{e}}",
        "kHdiss" : "k_{\\mathrm{H,diss}}",
        "kLdiss" : "k_{\\mathrm{L,diss}}",
        "ncrdiss" : "n_{\\mathrm{cr,diss}}",
        "kHdissH2" : "k_{\\mathrm{H,diss,H}_2}",
        "kLdissH2" : "k_{\\mathrm{L,diss,H}_2}",
        "ncrdissH2" : "n_{\\mathrm{cr,diss,H}_2}"
    },
    "symbols" : {
        "Tgas" : "T",
        "T32" : "(T/300)",
        "fHnOj" : "f_{\\mathrm{H}_{\\mathrm{n}}\\mathrm{O}^+}",
        "user_Av" : "A_{\\mathrm{v}}",
        "user_G0" : "G_0",
        "user_crate" : "\\zeta_{\\mathrm{H}_{\\mathrm{I}}}",
        "ntot" : "n_{\\mathrm{tot}}",
        "Hnuclei" : "n_{\\mathrm{H}_{\\mathrm{tot}}}",
        "exp" : "exp",
        "ln" : "ln",
        "log" : "log",
        "sqrt" : "sqrt",
	    "user_Tdust" : "T_{\\mathrm{d}}",
	    "user_gamma_H2" : "\\mathrm{(see\\, sec.\\, \\ref{sec:external-isrf-as-diffuse-emission})}",
	    "user_gamma_CO" : "\\mathrm{(see\\, sec.\\, \\ref{sec:external-isrf-as-diffuse-emission})}",
	    "auto" : "\\mathrm{(see\\, ref.)}",
        "sigma_v96" : "\\int \\mathrm{d}E\\, J(E)\\, \\sigma_{\\mathrm{v96}}",
        "energy_ev" : "E"
    },
    "latex_backend" : "pytexit",
    "lines_per_page": 45,
    "max_fraction_length": 150,
    "max_exponent_length": 130,
    "truncate_numbers": 5,
    "sorted_by": "alphabetic"
}
